ISO-10303-21;
HEADER;
/* Generated by software containing ST-Developer
 * from STEP Tools, Inc. (www.steptools.com) 
 */

FILE_DESCRIPTION(
/* description */ (''),
/* implementation_level */ '2;1');

FILE_NAME(
/* name */ 'C:\\Users\\JedrzejKozuch\\Desktop\\optimal BC\\Part15.stp',

/* time_stamp */ '2022-09-19T14:34:49+02:00',
/* author */ ('JedrzejKozuch'),
/* organization */ (''),
/* preprocessor_version */ 'ST-DEVELOPER v19',
/* originating_system */ 'Autodesk Inventor 2023',
/* authorisation */ '');

FILE_SCHEMA (('AUTOMOTIVE_DESIGN { 1 0 10303 214 3 1 1 }'));
ENDSEC;

DATA;
#10=MECHANICAL_DESIGN_GEOMETRIC_PRESENTATION_REPRESENTATION('',(#16),#166);
#11=GEOMETRICALLY_BOUNDED_WIREFRAME_SHAPE_REPRESENTATION('',(#12),#165);
#12=GEOMETRIC_CURVE_SET('Sketch1',(#162));
#13=SHAPE_REPRESENTATION_RELATIONSHIP('SRR','None',#177,#15);
#14=SHAPE_REPRESENTATION_RELATIONSHIP('SRR','None',#177,#11);
#15=ADVANCED_BREP_SHAPE_REPRESENTATION('',(#17),#165);
#16=STYLED_ITEM('',(#186),#17);
#17=MANIFOLD_SOLID_BREP('Solid1',#85);
#18=PLANE('',#110);
#19=PLANE('',#114);
#20=PLANE('',#115);
#21=FACE_OUTER_BOUND('',#26,.T.);
#22=FACE_OUTER_BOUND('',#27,.T.);
#23=FACE_OUTER_BOUND('',#28,.T.);
#24=FACE_OUTER_BOUND('',#29,.T.);
#25=FACE_OUTER_BOUND('',#30,.T.);
#26=EDGE_LOOP('',(#60,#61,#62,#63));
#27=EDGE_LOOP('',(#64,#65,#66,#67));
#28=EDGE_LOOP('',(#68,#69,#70,#71));
#29=EDGE_LOOP('',(#72,#73,#74));
#30=EDGE_LOOP('',(#75,#76,#77));
#31=LINE('',#147,#36);
#32=LINE('',#150,#37);
#33=LINE('',#153,#38);
#34=LINE('',#155,#39);
#35=LINE('',#156,#40);
#36=VECTOR('',#122,0.393700787401575);
#37=VECTOR('',#125,0.393700787401575);
#38=VECTOR('',#128,0.393700787401575);
#39=VECTOR('',#129,0.393700787401575);
#40=VECTOR('',#130,0.393700787401575);
#41=CIRCLE('',#108,0.520051835700681);
#42=CIRCLE('',#109,0.520051835700681);
#43=CIRCLE('',#112,0.630594029314406);
#44=CIRCLE('',#113,0.630594029314406);
#45=VERTEX_POINT('',#143);
#46=VERTEX_POINT('',#144);
#47=VERTEX_POINT('',#146);
#48=VERTEX_POINT('',#148);
#49=VERTEX_POINT('',#152);
#50=VERTEX_POINT('',#154);
#51=EDGE_CURVE('',#45,#46,#41,.T.);
#52=EDGE_CURVE('',#46,#47,#31,.T.);
#53=EDGE_CURVE('',#48,#47,#42,.T.);
#54=EDGE_CURVE('',#45,#48,#32,.T.);
#55=EDGE_CURVE('',#49,#45,#33,.T.);
#56=EDGE_CURVE('',#50,#48,#34,.T.);
#57=EDGE_CURVE('',#49,#50,#35,.T.);
#58=EDGE_CURVE('',#46,#49,#43,.T.);
#59=EDGE_CURVE('',#47,#50,#44,.T.);
#60=ORIENTED_EDGE('',*,*,#51,.T.);
#61=ORIENTED_EDGE('',*,*,#52,.T.);
#62=ORIENTED_EDGE('',*,*,#53,.F.);
#63=ORIENTED_EDGE('',*,*,#54,.F.);
#64=ORIENTED_EDGE('',*,*,#55,.T.);
#65=ORIENTED_EDGE('',*,*,#54,.T.);
#66=ORIENTED_EDGE('',*,*,#56,.F.);
#67=ORIENTED_EDGE('',*,*,#57,.F.);
#68=ORIENTED_EDGE('',*,*,#58,.T.);
#69=ORIENTED_EDGE('',*,*,#57,.T.);
#70=ORIENTED_EDGE('',*,*,#59,.F.);
#71=ORIENTED_EDGE('',*,*,#52,.F.);
#72=ORIENTED_EDGE('',*,*,#59,.T.);
#73=ORIENTED_EDGE('',*,*,#56,.T.);
#74=ORIENTED_EDGE('',*,*,#53,.T.);
#75=ORIENTED_EDGE('',*,*,#58,.F.);
#76=ORIENTED_EDGE('',*,*,#51,.F.);
#77=ORIENTED_EDGE('',*,*,#55,.F.);
#78=CYLINDRICAL_SURFACE('',#107,0.520051835700681);
#79=CYLINDRICAL_SURFACE('',#111,0.630594029314406);
#80=ADVANCED_FACE('',(#21),#78,.T.);
#81=ADVANCED_FACE('',(#22),#18,.T.);
#82=ADVANCED_FACE('',(#23),#79,.T.);
#83=ADVANCED_FACE('',(#24),#19,.T.);
#84=ADVANCED_FACE('',(#25),#20,.F.);
#85=CLOSED_SHELL('',(#80,#81,#82,#83,#84));
#86=DERIVED_UNIT_ELEMENT(#88,1.);
#87=DERIVED_UNIT_ELEMENT(#171,-3.);
#88=(
CONVERSION_BASED_UNIT('gram',#90)
MASS_UNIT()
NAMED_UNIT(#168)
);
#89=(
MASS_UNIT()
NAMED_UNIT(*)
SI_UNIT(.KILO.,.GRAM.)
);
#90=MASS_MEASURE_WITH_UNIT(MASS_MEASURE(0.001),#89);
#91=DERIVED_UNIT((#86,#87));
#92=MEASURE_REPRESENTATION_ITEM('density measure',
POSITIVE_RATIO_MEASURE(1.),#91);
#93=PROPERTY_DEFINITION_REPRESENTATION(#98,#95);
#94=PROPERTY_DEFINITION_REPRESENTATION(#99,#96);
#95=REPRESENTATION('material name',(#97),#165);
#96=REPRESENTATION('density',(#92),#165);
#97=DESCRIPTIVE_REPRESENTATION_ITEM('Generic','Generic');
#98=PROPERTY_DEFINITION('material property','material name',#179);
#99=PROPERTY_DEFINITION('material property','density of part',#179);
#100=DATE_TIME_ROLE('creation_date');
#101=APPLIED_DATE_AND_TIME_ASSIGNMENT(#102,#100,(#179));
#102=DATE_AND_TIME(#103,#104);
#103=CALENDAR_DATE(2022,19,9);
#104=LOCAL_TIME(0,0,0.,#105);
#105=COORDINATED_UNIVERSAL_TIME_OFFSET(0,0,.BEHIND.);
#106=AXIS2_PLACEMENT_3D('placement',#141,#116,#117);
#107=AXIS2_PLACEMENT_3D('',#142,#118,#119);
#108=AXIS2_PLACEMENT_3D('',#145,#120,#121);
#109=AXIS2_PLACEMENT_3D('',#149,#123,#124);
#110=AXIS2_PLACEMENT_3D('',#151,#126,#127);
#111=AXIS2_PLACEMENT_3D('',#157,#131,#132);
#112=AXIS2_PLACEMENT_3D('',#158,#133,#134);
#113=AXIS2_PLACEMENT_3D('',#159,#135,#136);
#114=AXIS2_PLACEMENT_3D('',#160,#137,#138);
#115=AXIS2_PLACEMENT_3D('',#161,#139,#140);
#116=DIRECTION('axis',(0.,0.,1.));
#117=DIRECTION('refdir',(1.,0.,0.));
#118=DIRECTION('center_axis',(1.,0.,0.));
#119=DIRECTION('ref_axis',(0.,0.838704530531106,0.544586733649101));
#120=DIRECTION('center_axis',(1.,0.,0.));
#121=DIRECTION('ref_axis',(0.,0.838704530531106,0.544586733649101));
#122=DIRECTION('',(1.,0.,0.));
#123=DIRECTION('center_axis',(1.,0.,0.));
#124=DIRECTION('ref_axis',(0.,0.838704530531106,0.544586733649101));
#125=DIRECTION('',(1.,0.,0.));
#126=DIRECTION('center_axis',(0.,0.,1.));
#127=DIRECTION('ref_axis',(0.,-1.,0.));
#128=DIRECTION('',(0.,-1.,0.));
#129=DIRECTION('',(0.,-1.,0.));
#130=DIRECTION('',(1.,0.,0.));
#131=DIRECTION('center_axis',(1.,0.,0.));
#132=DIRECTION('ref_axis',(0.,-0.979695732241245,-0.200490080124404));
#133=DIRECTION('center_axis',(1.,0.,0.));
#134=DIRECTION('ref_axis',(0.,-0.979695732241245,-0.200490080124404));
#135=DIRECTION('center_axis',(1.,0.,0.));
#136=DIRECTION('ref_axis',(0.,-0.979695732241245,-0.200490080124404));
#137=DIRECTION('center_axis',(1.,0.,0.));
#138=DIRECTION('ref_axis',(0.,0.,-1.));
#139=DIRECTION('center_axis',(1.,0.,0.));
#140=DIRECTION('ref_axis',(0.,0.,-1.));
#141=CARTESIAN_POINT('',(0.,0.,0.));
#142=CARTESIAN_POINT('Origin',(0.,-0.128150011349995,0.136303242921777));
#143=CARTESIAN_POINT('',(0.,0.308019819363185,0.41951657345423));
#144=CARTESIAN_POINT('',(0.,-0.553473112918222,0.435559272247891));
#145=CARTESIAN_POINT('Origin',(0.,-0.128150011349995,0.136303242921777));
#146=CARTESIAN_POINT('',(0.0625,-0.553473112918222,0.435559272247891));
#147=CARTESIAN_POINT('',(0.,-0.553473112918222,0.435559272247891));
#148=CARTESIAN_POINT('',(0.0625,0.308019819363185,0.41951657345423));
#149=CARTESIAN_POINT('Origin',(0.0625,-0.128150011349995,0.136303242921777));
#150=CARTESIAN_POINT('',(0.,0.308019819363185,0.41951657345423));
#151=CARTESIAN_POINT('Origin',(0.,0.678606164534516,0.41951657345423));
#152=CARTESIAN_POINT('',(0.,0.678606164534516,0.41951657345423));
#153=CARTESIAN_POINT('',(0.,0.678606164534516,0.41951657345423));
#154=CARTESIAN_POINT('',(0.0625,0.678606164534516,0.41951657345423));
#155=CARTESIAN_POINT('',(0.0625,0.678606164534516,0.41951657345423));
#156=CARTESIAN_POINT('',(0.,0.678606164534516,0.41951657345423));
#157=CARTESIAN_POINT('Origin',(0.,0.0643171663779116,0.561987119711107));
#158=CARTESIAN_POINT('Origin',(0.,0.0643171663779116,0.561987119711107));
#159=CARTESIAN_POINT('Origin',(0.0625,0.0643171663779116,0.561987119711107));
#160=CARTESIAN_POINT('Origin',(0.0625,0.0625665258081468,0.29387408450958));
#161=CARTESIAN_POINT('Origin',(0.,0.0625665258081468,0.29387408450958));
#162=CARTESIAN_POINT('',(0.,0.,0.));
#163=UNCERTAINTY_MEASURE_WITH_UNIT(LENGTH_MEASURE(0.000393700787401575),
#169,'DISTANCE_ACCURACY_VALUE',
'Maximum model space distance between geometric entities at asserted c
onnectivities');
#164=UNCERTAINTY_MEASURE_WITH_UNIT(LENGTH_MEASURE(0.000393700787401575),
#169,'DISTANCE_ACCURACY_VALUE',
'Maximum model space distance between geometric entities at asserted c
onnectivities');
#165=(
GEOMETRIC_REPRESENTATION_CONTEXT(3)
GLOBAL_UNCERTAINTY_ASSIGNED_CONTEXT((#163))
GLOBAL_UNIT_ASSIGNED_CONTEXT((#169,#173,#174))
REPRESENTATION_CONTEXT('','3D')
);
#166=(
GEOMETRIC_REPRESENTATION_CONTEXT(3)
GLOBAL_UNCERTAINTY_ASSIGNED_CONTEXT((#164))
GLOBAL_UNIT_ASSIGNED_CONTEXT((#169,#173,#174))
REPRESENTATION_CONTEXT('','3D')
);
#167=DIMENSIONAL_EXPONENTS(1.,0.,0.,0.,0.,0.,0.);
#168=DIMENSIONAL_EXPONENTS(1.,0.,0.,0.,0.,0.,0.);
#169=(
CONVERSION_BASED_UNIT('inch',#172)
LENGTH_UNIT()
NAMED_UNIT(#167)
);
#170=(
LENGTH_UNIT()
NAMED_UNIT(*)
SI_UNIT(.MILLI.,.METRE.)
);
#171=(
LENGTH_UNIT()
NAMED_UNIT(*)
SI_UNIT(.CENTI.,.METRE.)
);
#172=LENGTH_MEASURE_WITH_UNIT(LENGTH_MEASURE(25.4),#170);
#173=(
NAMED_UNIT(*)
PLANE_ANGLE_UNIT()
SI_UNIT($,.RADIAN.)
);
#174=(
NAMED_UNIT(*)
SI_UNIT($,.STERADIAN.)
SOLID_ANGLE_UNIT()
);
#175=SHAPE_DEFINITION_REPRESENTATION(#176,#177);
#176=PRODUCT_DEFINITION_SHAPE('',$,#179);
#177=SHAPE_REPRESENTATION('',(#106),#165);
#178=PRODUCT_DEFINITION_CONTEXT('part definition',#183,'design');
#179=PRODUCT_DEFINITION('Part4','Part4',#180,#178);
#180=PRODUCT_DEFINITION_FORMATION('',$,#185);
#181=PRODUCT_RELATED_PRODUCT_CATEGORY('Part4','Part4',(#185));
#182=APPLICATION_PROTOCOL_DEFINITION('international standard',
'automotive_design',2009,#183);
#183=APPLICATION_CONTEXT(
'Core Data for Automotive Mechanical Design Process');
#184=PRODUCT_CONTEXT('part definition',#183,'mechanical');
#185=PRODUCT('Part4','Part4',$,(#184));
#186=PRESENTATION_STYLE_ASSIGNMENT((#188));
#187=PRESENTATION_STYLE_ASSIGNMENT((#189));
#188=SURFACE_STYLE_USAGE(.BOTH.,#192);
#189=SURFACE_STYLE_USAGE(.BOTH.,#193);
#190=SURFACE_STYLE_RENDERING_WITH_PROPERTIES($,#200,(#191));
#191=SURFACE_STYLE_TRANSPARENT(0.);
#192=SURFACE_SIDE_STYLE('',(#194,#190));
#193=SURFACE_SIDE_STYLE('',(#195));
#194=SURFACE_STYLE_FILL_AREA(#196);
#195=SURFACE_STYLE_FILL_AREA(#197);
#196=FILL_AREA_STYLE('',(#198));
#197=FILL_AREA_STYLE('',(#199));
#198=FILL_AREA_STYLE_COLOUR('',#200);
#199=FILL_AREA_STYLE_COLOUR('',#201);
#200=COLOUR_RGB('',0.749019607843137,0.749019607843137,0.749019607843137);
#201=COLOUR_RGB('',1.,1.,0.);
ENDSEC;
END-ISO-10303-21;
