ISO-10303-21;
HEADER;
/* Generated by software containing ST-Developer
 * from STEP Tools, Inc. (www.steptools.com) 
 */

FILE_DESCRIPTION(
/* description */ (''),
/* implementation_level */ '2;1');

FILE_NAME(
/* name */ 
'C:\\Users\\pschwitalla\\OneDrive - igus GmbH\\Documents\\190520_Platt
form Tribocut\\01_Instant Quoting\\L\X\D6SUNGEN\\Oroox\\03_CNC calcula
tion\\40_Calculations\\Pockets\\Closed Pocket_internal fillets, NO flo
or_v01.stp',
/* time_stamp */ '2022-02-21T18:51:06+01:00',
/* author */ ('pschwitalla'),
/* organization */ ('igus GmbH'),
/* preprocessor_version */ 'ST-DEVELOPER v18.1',
/* originating_system */ 'Autodesk Inventor 2020',
/* authorisation */ '');

FILE_SCHEMA (('AUTOMOTIVE_DESIGN { 1 0 10303 214 3 1 1 }'));
ENDSEC;

DATA;
#10=MECHANICAL_DESIGN_GEOMETRIC_PRESENTATION_REPRESENTATION('',(#13),#459);
#11=SHAPE_REPRESENTATION_RELATIONSHIP('SRR','None',#466,#12);
#12=ADVANCED_BREP_SHAPE_REPRESENTATION('',(#14),#458);
#13=STYLED_ITEM('',(#475),#14);
#14=MANIFOLD_SOLID_BREP('Solid1',#271);
#15=FACE_BOUND('',#56,.T.);
#16=FACE_BOUND('',#58,.T.);
#17=CIRCLE('',#287,3.);
#18=CIRCLE('',#288,3.);
#19=CIRCLE('',#291,3.);
#20=CIRCLE('',#292,3.);
#21=CIRCLE('',#295,3.);
#22=CIRCLE('',#296,3.);
#23=CIRCLE('',#299,3.);
#24=CIRCLE('',#300,3.);
#25=CYLINDRICAL_SURFACE('',#286,3.);
#26=CYLINDRICAL_SURFACE('',#290,3.);
#27=CYLINDRICAL_SURFACE('',#294,3.);
#28=CYLINDRICAL_SURFACE('',#298,3.);
#29=FACE_OUTER_BOUND('',#43,.T.);
#30=FACE_OUTER_BOUND('',#44,.T.);
#31=FACE_OUTER_BOUND('',#45,.T.);
#32=FACE_OUTER_BOUND('',#46,.T.);
#33=FACE_OUTER_BOUND('',#47,.T.);
#34=FACE_OUTER_BOUND('',#48,.T.);
#35=FACE_OUTER_BOUND('',#49,.T.);
#36=FACE_OUTER_BOUND('',#50,.T.);
#37=FACE_OUTER_BOUND('',#51,.T.);
#38=FACE_OUTER_BOUND('',#52,.T.);
#39=FACE_OUTER_BOUND('',#53,.T.);
#40=FACE_OUTER_BOUND('',#54,.T.);
#41=FACE_OUTER_BOUND('',#55,.T.);
#42=FACE_OUTER_BOUND('',#57,.T.);
#43=EDGE_LOOP('',(#175,#176,#177,#178));
#44=EDGE_LOOP('',(#179,#180,#181,#182));
#45=EDGE_LOOP('',(#183,#184,#185,#186));
#46=EDGE_LOOP('',(#187,#188,#189,#190));
#47=EDGE_LOOP('',(#191,#192,#193,#194));
#48=EDGE_LOOP('',(#195,#196,#197,#198));
#49=EDGE_LOOP('',(#199,#200,#201,#202));
#50=EDGE_LOOP('',(#203,#204,#205,#206));
#51=EDGE_LOOP('',(#207,#208,#209,#210));
#52=EDGE_LOOP('',(#211,#212,#213,#214));
#53=EDGE_LOOP('',(#215,#216,#217,#218));
#54=EDGE_LOOP('',(#219,#220,#221,#222));
#55=EDGE_LOOP('',(#223,#224,#225,#226));
#56=EDGE_LOOP('',(#227,#228,#229,#230,#231,#232,#233,#234));
#57=EDGE_LOOP('',(#235,#236,#237,#238));
#58=EDGE_LOOP('',(#239,#240,#241,#242,#243,#244,#245,#246));
#59=LINE('',#385,#87);
#60=LINE('',#387,#88);
#61=LINE('',#389,#89);
#62=LINE('',#390,#90);
#63=LINE('',#396,#91);
#64=LINE('',#399,#92);
#65=LINE('',#401,#93);
#66=LINE('',#402,#94);
#67=LINE('',#408,#95);
#68=LINE('',#411,#96);
#69=LINE('',#413,#97);
#70=LINE('',#414,#98);
#71=LINE('',#420,#99);
#72=LINE('',#423,#100);
#73=LINE('',#425,#101);
#74=LINE('',#426,#102);
#75=LINE('',#433,#103);
#76=LINE('',#435,#104);
#77=LINE('',#437,#105);
#78=LINE('',#438,#106);
#79=LINE('',#441,#107);
#80=LINE('',#443,#108);
#81=LINE('',#444,#109);
#82=LINE('',#447,#110);
#83=LINE('',#449,#111);
#84=LINE('',#450,#112);
#85=LINE('',#452,#113);
#86=LINE('',#453,#114);
#87=VECTOR('',#311,10.);
#88=VECTOR('',#312,10.);
#89=VECTOR('',#313,10.);
#90=VECTOR('',#314,10.);
#91=VECTOR('',#321,10.);
#92=VECTOR('',#324,10.);
#93=VECTOR('',#325,10.);
#94=VECTOR('',#326,10.);
#95=VECTOR('',#333,10.);
#96=VECTOR('',#336,10.);
#97=VECTOR('',#337,10.);
#98=VECTOR('',#338,10.);
#99=VECTOR('',#345,10.);
#100=VECTOR('',#348,10.);
#101=VECTOR('',#349,10.);
#102=VECTOR('',#350,10.);
#103=VECTOR('',#359,10.);
#104=VECTOR('',#360,10.);
#105=VECTOR('',#361,10.);
#106=VECTOR('',#362,10.);
#107=VECTOR('',#365,10.);
#108=VECTOR('',#366,10.);
#109=VECTOR('',#367,10.);
#110=VECTOR('',#370,10.);
#111=VECTOR('',#371,10.);
#112=VECTOR('',#372,10.);
#113=VECTOR('',#375,10.);
#114=VECTOR('',#376,10.);
#115=VERTEX_POINT('',#383);
#116=VERTEX_POINT('',#384);
#117=VERTEX_POINT('',#386);
#118=VERTEX_POINT('',#388);
#119=VERTEX_POINT('',#392);
#120=VERTEX_POINT('',#394);
#121=VERTEX_POINT('',#398);
#122=VERTEX_POINT('',#400);
#123=VERTEX_POINT('',#404);
#124=VERTEX_POINT('',#406);
#125=VERTEX_POINT('',#410);
#126=VERTEX_POINT('',#412);
#127=VERTEX_POINT('',#416);
#128=VERTEX_POINT('',#418);
#129=VERTEX_POINT('',#422);
#130=VERTEX_POINT('',#424);
#131=VERTEX_POINT('',#431);
#132=VERTEX_POINT('',#432);
#133=VERTEX_POINT('',#434);
#134=VERTEX_POINT('',#436);
#135=VERTEX_POINT('',#440);
#136=VERTEX_POINT('',#442);
#137=VERTEX_POINT('',#446);
#138=VERTEX_POINT('',#448);
#139=EDGE_CURVE('',#115,#116,#59,.T.);
#140=EDGE_CURVE('',#117,#115,#60,.T.);
#141=EDGE_CURVE('',#118,#117,#61,.T.);
#142=EDGE_CURVE('',#118,#116,#62,.T.);
#143=EDGE_CURVE('',#116,#119,#17,.T.);
#144=EDGE_CURVE('',#120,#118,#18,.T.);
#145=EDGE_CURVE('',#120,#119,#63,.T.);
#146=EDGE_CURVE('',#119,#121,#64,.T.);
#147=EDGE_CURVE('',#122,#120,#65,.T.);
#148=EDGE_CURVE('',#122,#121,#66,.T.);
#149=EDGE_CURVE('',#121,#123,#19,.T.);
#150=EDGE_CURVE('',#124,#122,#20,.T.);
#151=EDGE_CURVE('',#124,#123,#67,.T.);
#152=EDGE_CURVE('',#123,#125,#68,.T.);
#153=EDGE_CURVE('',#126,#124,#69,.T.);
#154=EDGE_CURVE('',#126,#125,#70,.T.);
#155=EDGE_CURVE('',#125,#127,#21,.T.);
#156=EDGE_CURVE('',#128,#126,#22,.T.);
#157=EDGE_CURVE('',#128,#127,#71,.T.);
#158=EDGE_CURVE('',#127,#129,#72,.T.);
#159=EDGE_CURVE('',#130,#128,#73,.T.);
#160=EDGE_CURVE('',#130,#129,#74,.T.);
#161=EDGE_CURVE('',#129,#115,#23,.T.);
#162=EDGE_CURVE('',#117,#130,#24,.T.);
#163=EDGE_CURVE('',#131,#132,#75,.T.);
#164=EDGE_CURVE('',#132,#133,#76,.T.);
#165=EDGE_CURVE('',#134,#133,#77,.T.);
#166=EDGE_CURVE('',#131,#134,#78,.T.);
#167=EDGE_CURVE('',#135,#131,#79,.T.);
#168=EDGE_CURVE('',#136,#134,#80,.T.);
#169=EDGE_CURVE('',#135,#136,#81,.T.);
#170=EDGE_CURVE('',#137,#135,#82,.T.);
#171=EDGE_CURVE('',#138,#136,#83,.T.);
#172=EDGE_CURVE('',#137,#138,#84,.T.);
#173=EDGE_CURVE('',#132,#137,#85,.T.);
#174=EDGE_CURVE('',#133,#138,#86,.T.);
#175=ORIENTED_EDGE('',*,*,#139,.F.);
#176=ORIENTED_EDGE('',*,*,#140,.F.);
#177=ORIENTED_EDGE('',*,*,#141,.F.);
#178=ORIENTED_EDGE('',*,*,#142,.T.);
#179=ORIENTED_EDGE('',*,*,#143,.F.);
#180=ORIENTED_EDGE('',*,*,#142,.F.);
#181=ORIENTED_EDGE('',*,*,#144,.F.);
#182=ORIENTED_EDGE('',*,*,#145,.T.);
#183=ORIENTED_EDGE('',*,*,#146,.F.);
#184=ORIENTED_EDGE('',*,*,#145,.F.);
#185=ORIENTED_EDGE('',*,*,#147,.F.);
#186=ORIENTED_EDGE('',*,*,#148,.T.);
#187=ORIENTED_EDGE('',*,*,#149,.F.);
#188=ORIENTED_EDGE('',*,*,#148,.F.);
#189=ORIENTED_EDGE('',*,*,#150,.F.);
#190=ORIENTED_EDGE('',*,*,#151,.T.);
#191=ORIENTED_EDGE('',*,*,#152,.F.);
#192=ORIENTED_EDGE('',*,*,#151,.F.);
#193=ORIENTED_EDGE('',*,*,#153,.F.);
#194=ORIENTED_EDGE('',*,*,#154,.T.);
#195=ORIENTED_EDGE('',*,*,#155,.F.);
#196=ORIENTED_EDGE('',*,*,#154,.F.);
#197=ORIENTED_EDGE('',*,*,#156,.F.);
#198=ORIENTED_EDGE('',*,*,#157,.T.);
#199=ORIENTED_EDGE('',*,*,#158,.F.);
#200=ORIENTED_EDGE('',*,*,#157,.F.);
#201=ORIENTED_EDGE('',*,*,#159,.F.);
#202=ORIENTED_EDGE('',*,*,#160,.T.);
#203=ORIENTED_EDGE('',*,*,#161,.F.);
#204=ORIENTED_EDGE('',*,*,#160,.F.);
#205=ORIENTED_EDGE('',*,*,#162,.F.);
#206=ORIENTED_EDGE('',*,*,#140,.T.);
#207=ORIENTED_EDGE('',*,*,#163,.T.);
#208=ORIENTED_EDGE('',*,*,#164,.T.);
#209=ORIENTED_EDGE('',*,*,#165,.F.);
#210=ORIENTED_EDGE('',*,*,#166,.F.);
#211=ORIENTED_EDGE('',*,*,#167,.T.);
#212=ORIENTED_EDGE('',*,*,#166,.T.);
#213=ORIENTED_EDGE('',*,*,#168,.F.);
#214=ORIENTED_EDGE('',*,*,#169,.F.);
#215=ORIENTED_EDGE('',*,*,#170,.T.);
#216=ORIENTED_EDGE('',*,*,#169,.T.);
#217=ORIENTED_EDGE('',*,*,#171,.F.);
#218=ORIENTED_EDGE('',*,*,#172,.F.);
#219=ORIENTED_EDGE('',*,*,#173,.T.);
#220=ORIENTED_EDGE('',*,*,#172,.T.);
#221=ORIENTED_EDGE('',*,*,#174,.F.);
#222=ORIENTED_EDGE('',*,*,#164,.F.);
#223=ORIENTED_EDGE('',*,*,#174,.T.);
#224=ORIENTED_EDGE('',*,*,#171,.T.);
#225=ORIENTED_EDGE('',*,*,#168,.T.);
#226=ORIENTED_EDGE('',*,*,#165,.T.);
#227=ORIENTED_EDGE('',*,*,#153,.T.);
#228=ORIENTED_EDGE('',*,*,#150,.T.);
#229=ORIENTED_EDGE('',*,*,#147,.T.);
#230=ORIENTED_EDGE('',*,*,#144,.T.);
#231=ORIENTED_EDGE('',*,*,#141,.T.);
#232=ORIENTED_EDGE('',*,*,#162,.T.);
#233=ORIENTED_EDGE('',*,*,#159,.T.);
#234=ORIENTED_EDGE('',*,*,#156,.T.);
#235=ORIENTED_EDGE('',*,*,#173,.F.);
#236=ORIENTED_EDGE('',*,*,#163,.F.);
#237=ORIENTED_EDGE('',*,*,#167,.F.);
#238=ORIENTED_EDGE('',*,*,#170,.F.);
#239=ORIENTED_EDGE('',*,*,#152,.T.);
#240=ORIENTED_EDGE('',*,*,#155,.T.);
#241=ORIENTED_EDGE('',*,*,#158,.T.);
#242=ORIENTED_EDGE('',*,*,#161,.T.);
#243=ORIENTED_EDGE('',*,*,#139,.T.);
#244=ORIENTED_EDGE('',*,*,#143,.T.);
#245=ORIENTED_EDGE('',*,*,#146,.T.);
#246=ORIENTED_EDGE('',*,*,#149,.T.);
#247=PLANE('',#285);
#248=PLANE('',#289);
#249=PLANE('',#293);
#250=PLANE('',#297);
#251=PLANE('',#301);
#252=PLANE('',#302);
#253=PLANE('',#303);
#254=PLANE('',#304);
#255=PLANE('',#305);
#256=PLANE('',#306);
#257=ADVANCED_FACE('',(#29),#247,.F.);
#258=ADVANCED_FACE('',(#30),#25,.F.);
#259=ADVANCED_FACE('',(#31),#248,.F.);
#260=ADVANCED_FACE('',(#32),#26,.F.);
#261=ADVANCED_FACE('',(#33),#249,.F.);
#262=ADVANCED_FACE('',(#34),#27,.F.);
#263=ADVANCED_FACE('',(#35),#250,.F.);
#264=ADVANCED_FACE('',(#36),#28,.F.);
#265=ADVANCED_FACE('',(#37),#251,.T.);
#266=ADVANCED_FACE('',(#38),#252,.T.);
#267=ADVANCED_FACE('',(#39),#253,.T.);
#268=ADVANCED_FACE('',(#40),#254,.T.);
#269=ADVANCED_FACE('',(#41,#15),#255,.T.);
#270=ADVANCED_FACE('',(#42,#16),#256,.F.);
#271=CLOSED_SHELL('',(#257,#258,#259,#260,#261,#262,#263,#264,#265,#266,
#267,#268,#269,#270));
#272=DERIVED_UNIT_ELEMENT(#274,1.);
#273=DERIVED_UNIT_ELEMENT(#461,3.);
#274=(
MASS_UNIT()
NAMED_UNIT(*)
SI_UNIT($,.GRAM.)
);
#275=DERIVED_UNIT((#272,#273));
#276=MEASURE_REPRESENTATION_ITEM('density measure',
POSITIVE_RATIO_MEASURE(1.),#275);
#277=PROPERTY_DEFINITION_REPRESENTATION(#282,#279);
#278=PROPERTY_DEFINITION_REPRESENTATION(#283,#280);
#279=REPRESENTATION('material name',(#281),#458);
#280=REPRESENTATION('density',(#276),#458);
#281=DESCRIPTIVE_REPRESENTATION_ITEM('Generic','Generic');
#282=PROPERTY_DEFINITION('material property','material name',#468);
#283=PROPERTY_DEFINITION('material property','density of part',#468);
#284=AXIS2_PLACEMENT_3D('placement',#381,#307,#308);
#285=AXIS2_PLACEMENT_3D('',#382,#309,#310);
#286=AXIS2_PLACEMENT_3D('',#391,#315,#316);
#287=AXIS2_PLACEMENT_3D('',#393,#317,#318);
#288=AXIS2_PLACEMENT_3D('',#395,#319,#320);
#289=AXIS2_PLACEMENT_3D('',#397,#322,#323);
#290=AXIS2_PLACEMENT_3D('',#403,#327,#328);
#291=AXIS2_PLACEMENT_3D('',#405,#329,#330);
#292=AXIS2_PLACEMENT_3D('',#407,#331,#332);
#293=AXIS2_PLACEMENT_3D('',#409,#334,#335);
#294=AXIS2_PLACEMENT_3D('',#415,#339,#340);
#295=AXIS2_PLACEMENT_3D('',#417,#341,#342);
#296=AXIS2_PLACEMENT_3D('',#419,#343,#344);
#297=AXIS2_PLACEMENT_3D('',#421,#346,#347);
#298=AXIS2_PLACEMENT_3D('',#427,#351,#352);
#299=AXIS2_PLACEMENT_3D('',#428,#353,#354);
#300=AXIS2_PLACEMENT_3D('',#429,#355,#356);
#301=AXIS2_PLACEMENT_3D('',#430,#357,#358);
#302=AXIS2_PLACEMENT_3D('',#439,#363,#364);
#303=AXIS2_PLACEMENT_3D('',#445,#368,#369);
#304=AXIS2_PLACEMENT_3D('',#451,#373,#374);
#305=AXIS2_PLACEMENT_3D('',#454,#377,#378);
#306=AXIS2_PLACEMENT_3D('',#455,#379,#380);
#307=DIRECTION('axis',(0.,0.,1.));
#308=DIRECTION('refdir',(1.,0.,0.));
#309=DIRECTION('center_axis',(-1.,-3.00060276925718E-16,-6.66267656436665E-32));
#310=DIRECTION('ref_axis',(-3.00060276925718E-16,1.,2.22044604925031E-16));
#311=DIRECTION('',(3.00060276925718E-16,-1.,-2.22044604925031E-16));
#312=DIRECTION('',(0.,2.22044604925031E-16,-1.));
#313=DIRECTION('',(-3.00060276925718E-16,1.,2.22044604925031E-16));
#314=DIRECTION('',(0.,2.22044604925031E-16,-1.));
#315=DIRECTION('center_axis',(0.,2.22044604925031E-16,-1.));
#316=DIRECTION('ref_axis',(-1.,-3.00685402502647E-16,-6.67655714054241E-32));
#317=DIRECTION('center_axis',(0.,-2.22044604925031E-16,1.));
#318=DIRECTION('ref_axis',(-1.,-3.00685402502647E-16,-6.67655714054241E-32));
#319=DIRECTION('center_axis',(0.,2.22044604925031E-16,-1.));
#320=DIRECTION('ref_axis',(-1.,-3.00685402502647E-16,-6.67655714054241E-32));
#321=DIRECTION('',(0.,2.22044604925031E-16,-1.));
#322=DIRECTION('center_axis',(-1.26161707343768E-17,-1.,-2.22044604925031E-16));
#323=DIRECTION('ref_axis',(-1.,1.26161707343768E-17,2.80135264638143E-33));
#324=DIRECTION('',(1.,-1.26161707343768E-17,-2.80135264638143E-33));
#325=DIRECTION('',(-1.,1.26161707343768E-17,2.80135264638143E-33));
#326=DIRECTION('',(0.,2.22044604925031E-16,-1.));
#327=DIRECTION('center_axis',(0.,2.22044604925031E-16,-1.));
#328=DIRECTION('ref_axis',(0.,-1.,-2.22044604925031E-16));
#329=DIRECTION('center_axis',(0.,-2.22044604925031E-16,1.));
#330=DIRECTION('ref_axis',(0.,-1.,-2.22044604925031E-16));
#331=DIRECTION('center_axis',(0.,2.22044604925031E-16,-1.));
#332=DIRECTION('ref_axis',(0.,-1.,-2.22044604925031E-16));
#333=DIRECTION('',(0.,2.22044604925031E-16,-1.));
#334=DIRECTION('center_axis',(1.,1.80036166155431E-16,3.99760593861999E-32));
#335=DIRECTION('ref_axis',(1.80036166155431E-16,-1.,-2.22044604925031E-16));
#336=DIRECTION('',(-1.80036166155431E-16,1.,2.22044604925031E-16));
#337=DIRECTION('',(1.80036166155431E-16,-1.,-2.22044604925031E-16));
#338=DIRECTION('',(0.,2.22044604925031E-16,-1.));
#339=DIRECTION('center_axis',(0.,2.22044604925031E-16,-1.));
#340=DIRECTION('ref_axis',(1.,0.,0.));
#341=DIRECTION('center_axis',(0.,-2.22044604925031E-16,1.));
#342=DIRECTION('ref_axis',(1.,0.,0.));
#343=DIRECTION('center_axis',(0.,2.22044604925031E-16,-1.));
#344=DIRECTION('ref_axis',(1.,0.,0.));
#345=DIRECTION('',(0.,2.22044604925031E-16,-1.));
#346=DIRECTION('center_axis',(0.,1.,2.22044604925031E-16));
#347=DIRECTION('ref_axis',(1.,0.,0.));
#348=DIRECTION('',(-1.,0.,0.));
#349=DIRECTION('',(1.,0.,0.));
#350=DIRECTION('',(0.,2.22044604925031E-16,-1.));
#351=DIRECTION('center_axis',(0.,2.22044604925031E-16,-1.));
#352=DIRECTION('ref_axis',(0.,1.,2.22044604925031E-16));
#353=DIRECTION('center_axis',(0.,-2.22044604925031E-16,1.));
#354=DIRECTION('ref_axis',(0.,1.,2.22044604925031E-16));
#355=DIRECTION('center_axis',(0.,2.22044604925031E-16,-1.));
#356=DIRECTION('ref_axis',(0.,1.,2.22044604925031E-16));
#357=DIRECTION('center_axis',(2.368475785867E-16,-1.,-2.22044604925031E-16));
#358=DIRECTION('ref_axis',(1.,2.368475785867E-16,5.25907270147341E-32));
#359=DIRECTION('',(1.,2.368475785867E-16,5.25907270147341E-32));
#360=DIRECTION('',(0.,-2.22044604925031E-16,1.));
#361=DIRECTION('',(1.,2.368475785867E-16,5.25907270147341E-32));
#362=DIRECTION('',(0.,-2.22044604925031E-16,1.));
#363=DIRECTION('center_axis',(-1.,0.,0.));
#364=DIRECTION('ref_axis',(0.,-1.,-2.22044604925031E-16));
#365=DIRECTION('',(0.,-1.,-2.22044604925031E-16));
#366=DIRECTION('',(0.,-1.,-2.22044604925031E-16));
#367=DIRECTION('',(0.,-2.22044604925031E-16,1.));
#368=DIRECTION('center_axis',(-2.368475785867E-16,1.,2.22044604925031E-16));
#369=DIRECTION('ref_axis',(-1.,-2.368475785867E-16,-5.25907270147341E-32));
#370=DIRECTION('',(-1.,-2.368475785867E-16,-5.25907270147341E-32));
#371=DIRECTION('',(-1.,-2.368475785867E-16,-5.25907270147341E-32));
#372=DIRECTION('',(0.,-2.22044604925031E-16,1.));
#373=DIRECTION('center_axis',(1.,2.66453525910038E-16,5.91645678915759E-32));
#374=DIRECTION('ref_axis',(-2.66453525910038E-16,1.,2.22044604925031E-16));
#375=DIRECTION('',(-2.66453525910038E-16,1.,2.22044604925031E-16));
#376=DIRECTION('',(-2.66453525910038E-16,1.,2.22044604925031E-16));
#377=DIRECTION('center_axis',(0.,-2.22044604925031E-16,1.));
#378=DIRECTION('ref_axis',(0.,-1.,-2.22044604925031E-16));
#379=DIRECTION('center_axis',(0.,-2.22044604925031E-16,1.));
#380=DIRECTION('ref_axis',(0.,-1.,-2.22044604925031E-16));
#381=CARTESIAN_POINT('',(0.,0.,0.));
#382=CARTESIAN_POINT('Origin',(-18.2307755809731,21.5736308926134,-12.9985228951256));
#383=CARTESIAN_POINT('',(-18.2307755809731,95.5736308926134,-47.9985228951256));
#384=CARTESIAN_POINT('',(-18.2307755809731,21.5736308926134,-47.9985228951256));
#385=CARTESIAN_POINT('',(-18.2307755809731,28.2868154463067,-47.9985228951256));
#386=CARTESIAN_POINT('',(-18.2307755809731,95.5736308926134,-12.9985228951256));
#387=CARTESIAN_POINT('',(-18.2307755809731,95.5736308926134,-12.9985228951256));
#388=CARTESIAN_POINT('',(-18.2307755809731,21.5736308926134,-12.9985228951256));
#389=CARTESIAN_POINT('',(-18.2307755809731,28.2868154463067,-12.9985228951256));
#390=CARTESIAN_POINT('',(-18.2307755809731,21.5736308926134,-12.9985228951256));
#391=CARTESIAN_POINT('Origin',(-15.2307755809731,21.5736308926134,-12.9985228951256));
#392=CARTESIAN_POINT('',(-15.2307755809731,18.5736308926134,-47.9985228951256));
#393=CARTESIAN_POINT('Origin',(-15.2307755809731,21.5736308926134,-47.9985228951256));
#394=CARTESIAN_POINT('',(-15.2307755809731,18.5736308926134,-12.9985228951256));
#395=CARTESIAN_POINT('Origin',(-15.2307755809731,21.5736308926134,-12.9985228951256));
#396=CARTESIAN_POINT('',(-15.2307755809731,18.5736308926134,-12.9985228951256));
#397=CARTESIAN_POINT('Origin',(28.7692244190269,18.5736308926134,-12.9985228951256));
#398=CARTESIAN_POINT('',(28.7692244190269,18.5736308926134,-47.9985228951256));
#399=CARTESIAN_POINT('',(20.7176986241096,18.5736308926134,-47.9985228951256));
#400=CARTESIAN_POINT('',(28.7692244190269,18.5736308926134,-12.9985228951256));
#401=CARTESIAN_POINT('',(20.7176986241096,18.5736308926134,-12.9985228951256));
#402=CARTESIAN_POINT('',(28.7692244190269,18.5736308926134,-12.9985228951256));
#403=CARTESIAN_POINT('Origin',(28.7692244190269,21.5736308926134,-12.9985228951256));
#404=CARTESIAN_POINT('',(31.7692244190269,21.5736308926134,-47.9985228951256));
#405=CARTESIAN_POINT('Origin',(28.7692244190269,21.5736308926134,-47.9985228951256));
#406=CARTESIAN_POINT('',(31.7692244190269,21.5736308926134,-12.9985228951256));
#407=CARTESIAN_POINT('Origin',(28.7692244190269,21.5736308926134,-12.9985228951256));
#408=CARTESIAN_POINT('',(31.7692244190269,21.5736308926134,-12.9985228951256));
#409=CARTESIAN_POINT('Origin',(31.7692244190269,95.5736308926134,-12.9985228951256));
#410=CARTESIAN_POINT('',(31.7692244190269,95.5736308926134,-47.9985228951256));
#411=CARTESIAN_POINT('',(31.7692244190269,65.2868154463067,-47.9985228951256));
#412=CARTESIAN_POINT('',(31.7692244190269,95.5736308926134,-12.9985228951256));
#413=CARTESIAN_POINT('',(31.7692244190269,65.2868154463067,-12.9985228951256));
#414=CARTESIAN_POINT('',(31.7692244190269,95.5736308926134,-12.9985228951256));
#415=CARTESIAN_POINT('Origin',(28.7692244190269,95.5736308926134,-12.9985228951256));
#416=CARTESIAN_POINT('',(28.7692244190269,98.5736308926134,-47.9985228951256));
#417=CARTESIAN_POINT('Origin',(28.7692244190269,95.5736308926134,-47.9985228951256));
#418=CARTESIAN_POINT('',(28.7692244190269,98.5736308926134,-12.9985228951256));
#419=CARTESIAN_POINT('Origin',(28.7692244190269,95.5736308926134,-12.9985228951256));
#420=CARTESIAN_POINT('',(28.7692244190269,98.5736308926134,-12.9985228951256));
#421=CARTESIAN_POINT('Origin',(-15.2307755809731,98.5736308926134,-12.9985228951256));
#422=CARTESIAN_POINT('',(-15.2307755809731,98.5736308926134,-47.9985228951256));
#423=CARTESIAN_POINT('',(-1.28230137589045,98.5736308926134,-47.9985228951256));
#424=CARTESIAN_POINT('',(-15.2307755809731,98.5736308926134,-12.9985228951256));
#425=CARTESIAN_POINT('',(-1.28230137589045,98.5736308926134,-12.9985228951256));
#426=CARTESIAN_POINT('',(-15.2307755809731,98.5736308926134,-12.9985228951256));
#427=CARTESIAN_POINT('Origin',(-15.2307755809731,95.5736308926134,-12.9985228951256));
#428=CARTESIAN_POINT('Origin',(-15.2307755809731,95.5736308926134,-47.9985228951256));
#429=CARTESIAN_POINT('Origin',(-15.2307755809731,95.5736308926134,-12.9985228951256));
#430=CARTESIAN_POINT('Origin',(-62.3338271708079,-65.,-47.9985228951256));
#431=CARTESIAN_POINT('',(-62.3338271708079,-65.,-47.9985228951256));
#432=CARTESIAN_POINT('',(87.6661728291922,-65.,-47.9985228951256));
#433=CARTESIAN_POINT('',(-62.3338271708079,-65.,-47.9985228951256));
#434=CARTESIAN_POINT('',(87.6661728291922,-65.,-12.9985228951256));
#435=CARTESIAN_POINT('',(87.6661728291922,-65.,-47.9985228951256));
#436=CARTESIAN_POINT('',(-62.3338271708079,-65.,-12.9985228951256));
#437=CARTESIAN_POINT('',(-62.3338271708079,-65.,-12.9985228951256));
#438=CARTESIAN_POINT('',(-62.3338271708079,-65.,-47.9985228951256));
#439=CARTESIAN_POINT('Origin',(-62.3338271708079,135.,-47.9985228951256));
#440=CARTESIAN_POINT('',(-62.3338271708079,135.,-47.9985228951256));
#441=CARTESIAN_POINT('',(-62.3338271708079,135.,-47.9985228951256));
#442=CARTESIAN_POINT('',(-62.3338271708079,135.,-12.9985228951256));
#443=CARTESIAN_POINT('',(-62.3338271708079,135.,-12.9985228951256));
#444=CARTESIAN_POINT('',(-62.3338271708079,135.,-47.9985228951256));
#445=CARTESIAN_POINT('Origin',(87.6661728291922,135.,-47.9985228951256));
#446=CARTESIAN_POINT('',(87.6661728291922,135.,-47.9985228951256));
#447=CARTESIAN_POINT('',(87.6661728291922,135.,-47.9985228951256));
#448=CARTESIAN_POINT('',(87.6661728291922,135.,-12.9985228951256));
#449=CARTESIAN_POINT('',(87.6661728291922,135.,-12.9985228951256));
#450=CARTESIAN_POINT('',(87.6661728291922,135.,-47.9985228951256));
#451=CARTESIAN_POINT('Origin',(87.6661728291922,-65.,-47.9985228951256));
#452=CARTESIAN_POINT('',(87.6661728291922,-65.,-47.9985228951256));
#453=CARTESIAN_POINT('',(87.6661728291922,-65.,-12.9985228951256));
#454=CARTESIAN_POINT('Origin',(12.6661728291922,35.,-12.9985228951256));
#455=CARTESIAN_POINT('Origin',(12.6661728291922,35.,-47.9985228951256));
#456=UNCERTAINTY_MEASURE_WITH_UNIT(LENGTH_MEASURE(0.01),#460,
'DISTANCE_ACCURACY_VALUE',
'Maximum model space distance between geometric entities at asserted c
onnectivities');
#457=UNCERTAINTY_MEASURE_WITH_UNIT(LENGTH_MEASURE(0.01),#460,
'DISTANCE_ACCURACY_VALUE',
'Maximum model space distance between geometric entities at asserted c
onnectivities');
#458=(
GEOMETRIC_REPRESENTATION_CONTEXT(3)
GLOBAL_UNCERTAINTY_ASSIGNED_CONTEXT((#456))
GLOBAL_UNIT_ASSIGNED_CONTEXT((#460,#462,#463))
REPRESENTATION_CONTEXT('','3D')
);
#459=(
GEOMETRIC_REPRESENTATION_CONTEXT(3)
GLOBAL_UNCERTAINTY_ASSIGNED_CONTEXT((#457))
GLOBAL_UNIT_ASSIGNED_CONTEXT((#460,#462,#463))
REPRESENTATION_CONTEXT('','3D')
);
#460=(
LENGTH_UNIT()
NAMED_UNIT(*)
SI_UNIT(.MILLI.,.METRE.)
);
#461=(
LENGTH_UNIT()
NAMED_UNIT(*)
SI_UNIT(.CENTI.,.METRE.)
);
#462=(
NAMED_UNIT(*)
PLANE_ANGLE_UNIT()
SI_UNIT($,.RADIAN.)
);
#463=(
NAMED_UNIT(*)
SI_UNIT($,.STERADIAN.)
SOLID_ANGLE_UNIT()
);
#464=SHAPE_DEFINITION_REPRESENTATION(#465,#466);
#465=PRODUCT_DEFINITION_SHAPE('',$,#468);
#466=SHAPE_REPRESENTATION('',(#284),#458);
#467=PRODUCT_DEFINITION_CONTEXT('part definition',#472,'design');
#468=PRODUCT_DEFINITION('Pocket_v01',
'Closed Pocket_internal fillets, NO floor_v01',#469,#467);
#469=PRODUCT_DEFINITION_FORMATION('',$,#474);
#470=PRODUCT_RELATED_PRODUCT_CATEGORY(
'Closed Pocket_internal fillets, NO floor_v01',
'Closed Pocket_internal fillets, NO floor_v01',(#474));
#471=APPLICATION_PROTOCOL_DEFINITION('international standard',
'automotive_design',2009,#472);
#472=APPLICATION_CONTEXT(
'Core Data for Automotive Mechanical Design Process');
#473=PRODUCT_CONTEXT('part definition',#472,'mechanical');
#474=PRODUCT('Pocket_v01',
'Closed Pocket_internal fillets, NO floor_v01',$,(#473));
#475=PRESENTATION_STYLE_ASSIGNMENT((#476));
#476=SURFACE_STYLE_USAGE(.BOTH.,#479);
#477=SURFACE_STYLE_RENDERING_WITH_PROPERTIES($,#483,(#478));
#478=SURFACE_STYLE_TRANSPARENT(0.);
#479=SURFACE_SIDE_STYLE('',(#480,#477));
#480=SURFACE_STYLE_FILL_AREA(#481);
#481=FILL_AREA_STYLE('',(#482));
#482=FILL_AREA_STYLE_COLOUR('',#483);
#483=COLOUR_RGB('',0.749019607843137,0.749019607843137,0.749019607843137);
ENDSEC;
END-ISO-10303-21;
